module gitlab.com/evatix-go/strhelper

go 1.17

require (
	github.com/smartystreets/goconvey v1.7.2
	gitlab.com/evatix-go/core v1.3.55
	gitlab.com/evatix-go/enum v0.4.2
	gitlab.com/evatix-go/errorwrapper v1.1.5
)

require (
	github.com/gopherjs/gopherjs v0.0.0-20181017120253-0766667cb4d1 // indirect
	github.com/jtolds/gls v4.20.0+incompatible // indirect
	github.com/smartystreets/assertions v1.2.0 // indirect
	golang.org/x/sys v0.0.0-20190215142949-d0b11bdaac8a // indirect
)
